Place,Name,Sex,BirthDate,Age,Country,State,Equipment,Division,BodyweightKg,WeightClassKg,Squat1Kg,Squat2Kg,Squat3Kg,Squat4Kg,Best3SquatKg,Bench1Kg,Bench2Kg,Bench3Kg,Bench4Kg,Best3BenchKg,Deadlift1Kg,Deadlift2Kg,Deadlift3Kg,Deadlift4Kg,Best3DeadliftKg,TotalKg,Event
1,Amanda Wolff,F,1989-10-16,32,USA,TX,Wraps,Open,73.8,75,-182.5,195,-207.5,,195,117.5,125,130,,130,200,215,222.5,,222.5,547.5,SBD
1,Molly Johnson,F,1989-07-08,32,USA,CO,Raw,Open,71.75,75,147.5,162.5,170,,170,87.5,95,-102.5,,95,200,-220,-227.5,,200,465,SBD
1,Devin Merafuentes,M,2001-04-04,20,USA,NV,Wraps,Juniors 20-23,99.5,100,290,305,-317.5,,305,162.5,172.5,180,,180,227.5,250,272.5,,272.5,757.5,SBD
1,Jesse Carreon,M,1965-08-26,56,USA,CO,Wraps,Masters 55-59,91.55,100,197.5,207.5,-212.5,,207.5,122.5,132.5,140,,140,182.5,197.5,217.5,,217.5,565,SBD
1,Raymond Phillips,M,1985-07-28,36,USA,NY,Wraps,Open,75,75,277.5,-295,-295,,277.5,150,-157.5,-157.5,,150,287.5,-302.5,302.5,,302.5,730,SBD
1,Devin Merafuentes,M,2001-04-04,20,USA,NV,Wraps,Open,99.5,100,290,305,-317.5,,305,162.5,172.5,180,,180,227.5,250,272.5,,272.5,757.5,SBD
2,David Stensland,M,1984-10-31,37,USA,ND,Wraps,Open,99.2,100,262.5,-280,-280,,262.5,165,-175,-177.5,,165,287.5,295,-310,,295,722.5,SBD
3,Chris Ramos,M,1986-04-14,35,USA,CA,Wraps,Open,97,100,250,260,,,260,155,-165,-165,,155,-260,260,275,,275,690,SBD
4,Zacharie Levan,M,1994-07-05,27,USA,NV,Wraps,Open,98.75,100,205,220,-230,,220,135,145,-150,,145,227.5,245,-255,,245,610,SBD
5,Nicholas Anderson #1,M,1990-01-09,31,USA,CA,Wraps,Open,92.35,100,200,212.5,222.5,,222.5,122.5,132.5,-142.5,,132.5,230,242.5,250,,250,605,SBD
1,Curtis Miller #1,M,1989-03-16,32,USA,PA,Wraps,Open,109.65,110,-325,342.5,-357.5,,342.5,175,185,192.5,,192.5,272.5,317.5,-365,,317.5,852.5,SBD
1,Gage Mason,M,1991-09-25,30,USA,NV,Wraps,Open,122.25,125,305,322.5,-335,,322.5,172.5,-190,,,172.5,295,322.5,,,322.5,817.5,SBD
1,Eric Patel,M,1995-03-11,26,USA,CA,Wraps,Open,139.3,140,205,217.5,227.5,,227.5,117.5,-125,-130,,117.5,205,217.5,227.5,,227.5,572.5,SBD
1,Justin Ruiz,M,1989-09-03,32,USA,CA,Wraps,Open,147.55,140+,300,320,,,320,250,255,260,,260,-310,310,327.5,,327.5,907.5,SBD
2,Ryan Oushakoff,M,2000-11-28,20,USA,TX,Wraps,Open,140.7,140+,-285,295,-312.5,,295,185,197.5,-205,,197.5,272.5,285,-287.5,,285,777.5,SBD
3,Michael Eisner,M,1994-10-10,27,USA,CA,Wraps,Open,157.85,140+,272.5,290,-307.5,,290,175,185,192.5,,192.5,250,270,280,,280,762.5,SBD
1,Jesse Carreon,M,1965-08-26,56,USA,CO,Raw,Masters 55-59,91.55,100,,,,,,122.5,132.5,140,,140,,,,,,140,B
1,Jesse Carreon,M,1965-08-26,56,USA,CO,Raw,Masters 55-59,91.55,100,,,,,,122.5,132.5,140,,140,182.5,197.5,217.5,,217.5,357.5,BD
1,Jesse Carreon,M,1965-08-26,56,USA,CO,Raw,Masters 55-59,91.55,100,,,,,,,,,,,182.5,197.5,217.5,,217.5,217.5,D
1,Jordan Kortman,M,2000-09-10,21,USA,CA,Raw,Juniors 20-23,95.35,100,230,247.5,260,,260,165,175,-182.5,,175,290,305,320,,320,755,SBD
2,Agustin Reyes,M,1999-07-18,22,USA,NV,Raw,Juniors 20-23,99.35,100,170,190,200,,200,140,160,-172.5,,160,220,240,252.5,,252.5,612.5,SBD
1,Carlos Meza,M,1999-06-17,22,USA,NV,Raw,Juniors 20-23,105.8,110,227.5,237.5,252.5,,252.5,-147.5,167.5,182.5,,182.5,225,-247.5,-250,,225,660,SBD
1,Victor Arevalo,M,1999-12-22,21,USA,CA,Raw,Juniors 20-23,180,140+,240,250,-257.5,,250,200,207.5,215,,215,260,272.5,282.5,,282.5,747.5,SBD
1,Stephen Reed,M,1980-11-07,41,USA,MD,Raw,Masters 40-44,130.35,140,240,260,272.5,,272.5,170,187.5,192.5,,192.5,255,-272.5,-272.5,,255,720,SBD
2,Reilly Cook,M,1979-12-27,41,USA,CA,Raw,Masters 40-44,138.2,140,202.5,222.5,237.5,,237.5,132.5,145,,,145,212.5,242.5,250,,250,632.5,SBD
1,Dwayne Landon,M,1976-04-05,45,USA,VA,Raw,Masters 45-49,141.3,140+,190,200,205,,205,140,145,147.5,,147.5,227.5,237.5,-245,,237.5,590,SBD
1,Dillon Smith,M,1991-08-01,30,USA,NV,Raw,Open,99.1,100,245,260,272.5,,272.5,175,185,200,,200,240,260,272.5,,272.5,745,SBD
2,Agustin Reyes,M,1999-07-18,22,USA,NV,Raw,Open,99.35,100,170,190,200,,200,140,160,-172.5,,160,220,240,252.5,,252.5,612.5,SBD
1,Jacob Noble #3,M,1993-02-19,28,USA,NV,Raw,Open,109.6,110,285,300,307.5,,307.5,172.5,185,187.5,,187.5,305,325,335,340,335,830,SBD
2,Keith Valeros,M,1997-04-28,24,USA,CA,Raw,Open,109.35,110,290,307.5,317.5,,317.5,137.5,142.5,,,142.5,295,-317.5,,,295,755,SBD
1,Alex Bustamante #3,M,1995-06-15,26,USA,CA,Raw,Open,139.45,140,275,295,-310,,295,190,200,207.5,,207.5,310,330,-347.5,,330,832.5,SBD
2,Stephen Reed,M,1980-11-07,41,USA,MD,Raw,Open,130.35,140,240,260,272.5,,272.5,170,187.5,192.5,,192.5,255,-272.5,-272.5,,255,720,SBD
3,Matthew Rodriguez,M,1992-03-27,29,USA,CA,Raw,Open,139.85,140,150,157.5,175,,175,110,-120,-122.5,,110,185,192.5,200,,200,485,SBD
1,Salvatore Marte,M,1991-12-25,29,USA,NV,Raw,Open,144.55,140+,252.5,272.5,290,,290,167.5,-182.5,182.5,,182.5,272.5,297.5,-320,,297.5,770,SBD
2,Francisco Castanon,M,1998-01-06,23,USA,CA,Raw,Open,177,140+,302.5,312.5,-320,,312.5,172.5,-185,185,,185,220,230,235,,235,732.5,SBD
1,Michael Razo,M,1982-07-30,39,USA,CA,Raw,Submasters 35-39,136.95,140,227.5,237.5,-245,,237.5,135,145,147.5,,147.5,232.5,237.5,245,,245,630,SBD
1,Michael Poort,M,1974-08-17,47,USA,CO,Raw,Masters 45-49,98,100,,,,,,175,182.5,187.5,190,187.5,,,,,,187.5,B
1,Stephen Reed,M,1980-11-07,41,USA,MD,Raw,Masters 40-44,130.35,140,,,,,,170,187.5,192.5,,192.5,,,,,,192.5,B
1,Jack Crouse,M,1951-08-31,70,USA,AZ,Raw,Masters 70-74,90.2,100,,,,,,95,97.5,-100,,97.5,,,,,,97.5,B
1,Michael Poort,M,1974-08-17,47,USA,CO,Raw,Open,98,100,,,,,,175,182.5,187.5,190,187.5,,,,,,187.5,B
2,Mike Delgado,M,1986-02-21,35,USA,CA,Raw,Open,99.8,100,,,,,,175,185,187.5,,187.5,,,,,,187.5,B
1,Joey Soden,M,1991-05-03,30,USA,CA,Raw,Open,120.1,125,,,,,,210,-220,220,,220,,,,,,220,B
1,Stephen Reed,M,1980-11-07,41,USA,MD,Raw,Open,130.35,140,,,,,,170,187.5,192.5,,192.5,,,,,,192.5,B
1,Stephen Reed,M,1980-11-07,41,USA,MD,Raw,Masters 40-44,130.35,140,,,,,,170,187.5,192.5,,192.5,255,-272.5,-272.5,,255,447.5,BD
1,Jack Crouse,M,1951-08-31,70,USA,AZ,Raw,Masters 70-74,90.2,100,,,,,,95,97.5,-100,,97.5,135,152.5,-165,,152.5,250,BD
1,Stephen Reed,M,1980-11-07,41,USA,MD,Raw,Open,130.35,140,,,,,,170,187.5,192.5,,192.5,255,-272.5,-272.5,,255,447.5,BD
1,Stephen Reed,M,1980-11-07,41,USA,MD,Raw,Masters 40-44,130.35,140,,,,,,,,,,,255,-272.5,-272.5,,255,255,D
1,Jack Crouse,M,1951-08-31,70,USA,AZ,Raw,Masters 70-74,90.2,100,,,,,,,,,,,135,152.5,-165,,152.5,152.5,D
1,Stephen Reed,M,1980-11-07,41,USA,MD,Raw,Open,130.35,140,,,,,,,,,,,255,-272.5,-272.5,,255,255,D
1,Michael Poort,M,1974-08-17,47,USA,CO,Single-ply,Masters 45-49,98,100,,,,,,250,265,-272.5,,265,,,,,,265,B
1,Michael Poort,M,1974-08-17,47,USA,CO,Single-ply,Open,98,100,,,,,,250,265,-272.5,,265,,,,,,265,B
1,Samantha Hendricks,F,1997-09-03,24,USA,CA,Wraps,Open,59.4,60,150,160,167.5,,167.5,87.5,92.5,-95,,92.5,152.5,162.5,172.5,,172.5,432.5,SBD
1,Amber Dawn,F,1991-03-28,30,USA,WA,Wraps,Open,72.65,75,155,167.5,175,,175,100,107.5,-112.5,,107.5,170,182.5,192.5,,192.5,475,SBD
2,Celia Gomez,F,1990-01-06,31,USA,CA,Wraps,Open,74.15,75,147.5,155,-170,,155,70,75,-82.5,,75,145,157.5,-165,,157.5,387.5,SBD
1,Sally Perry #1,F,1984-07-18,37,USA,TX,Wraps,Open,75.35,82.5,135,142.5,150,,150,130,138,142.5,,142.5,190,202.5,-210,,202.5,495,SBD
1,Sally Perry #1,F,1984-07-18,37,USA,TX,Wraps,Submasters 35-39,75.35,82.5,135,142.5,150,,150,130,138,142.5,,142.5,190,202.5,-210,,202.5,495,SBD
1,Sally Perry #1,F,1984-07-18,37,USA,TX,Raw,Open,75.35,82.5,,,,,,130,138,142.5,,142.5,,,,,,142.5,B
1,Sally Perry #1,F,1984-07-18,37,USA,TX,Raw,Submasters 35-39,75.35,82.5,,,,,,130,138,142.5,,142.5,,,,,,142.5,B
1,Mindy Griffin,F,1981-08-06,40,USA,CA,Raw,Masters 40-44,58.55,60,90,97.5,100,,100,55,60,-65,,60,115,125,132.5,,132.5,292.5,SBD
1,Jessica Kratz,F,1972-12-08,48,USA,PA,Raw,Masters 45-49,66.95,67.5,122.5,130,137.5,,137.5,80,85,-90,,85,160,172.5,,,172.5,395,SBD
1,Christine Porter,F,1973-10-31,48,USA,TX,Raw,Masters 45-49,82.65,90,140,155,160,165,160,90,-97.5,97.5,,97.5,192.5,202.5,205,207.5,205,462.5,SBD
1,Teri Gehring,F,1970-06-08,51,USA,TX,Raw,Masters 50-54,59.05,60,112.5,120,125,127.5,125,87.5,95,97.5,,97.5,-150,155,160,160.5,160,382.5,SBD
1,Michelle Borzok,F,1970-12-01,50,USA,PA,Raw,Masters 50-54,63.6,67.5,110,117.5,125,,125,102.5,110,115,,115,147.5,162.5,-170,,162.5,402.5,SBD
1,Anne Krupa,F,1953-06-13,68,USA,PA,Raw,Masters 65-69,76.85,82.5,72.5,82.5,-90,,82.5,35,40,-45,,40,107.5,120,127.5,,127.5,250,SBD
1,Teri Gehring,F,1970-06-08,51,USA,TX,Raw,Open,59.05,60,112.5,120,125,127.5,125,87.5,95,97.5,,97.5,-150,155,160,160.5,160,382.5,SBD
2,Mindy Griffin,F,1981-08-06,40,USA,CA,Raw,Open,58.55,60,90,97.5,100,,100,55,60,-65,,60,115,125,132.5,,132.5,292.5,SBD
1,Michelle Borzok,F,1970-12-01,50,USA,PA,Raw,Open,63.6,67.5,110,117.5,125,,125,102.5,110,115,,115,147.5,162.5,-170,,162.5,402.5,SBD
2,Jessica Kratz,F,1972-12-08,48,USA,PA,Raw,Open,66.95,67.5,122.5,130,137.5,,137.5,80,85,-90,,85,160,172.5,,,172.5,395,SBD
1,Arlyn Abanes,F,1993-10-15,28,USA,CA,Raw,Open,74.6,75,120,122.5,-130,,122.5,57.5,60,65,,65,130,140,145,,145,332.5,SBD
1,Erica Longo,F,1991-07-08,30,USA,PA,Raw,Open,80.2,82.5,140,152.5,160,,160,82.5,87.5,92.5,,92.5,172.5,185,190,,190,442.5,SBD
1,Christine Porter,F,1973-10-31,48,USA,TX,Raw,Open,82.65,90,140,155,160,165,160,90,-97.5,97.5,,97.5,192.5,202.5,205,207.5,205,462.5,SBD
1,Teri Gehring,F,1970-06-08,51,USA,TX,Raw,Masters 50-54,59.05,60,,,,,,87.5,95,97.5,,97.5,,,,,,97.5,B
1,Teri Gehring,F,1970-06-08,51,USA,TX,Raw,Open,59.05,60,,,,,,87.5,95,97.5,,97.5,,,,,,97.5,B
1,Christine Porter,F,1973-10-31,48,USA,TX,Raw,Masters 45-49,82.65,90,,,,,,,,,,,192.5,202.5,205,207.5,205,205,D
1,Teri Gehring,F,1970-06-08,51,USA,TX,Raw,Masters 50-54,59.05,60,,,,,,,,,,,-150,155,160,160.5,160,160,D
1,Teri Gehring,F,1970-06-08,51,USA,TX,Raw,Open,59.05,60,,,,,,,,,,,-150,155,160,160.5,160,160,D
1,Deven Soto,M,2002-03-18,19,USA,CA,Wraps,Juniors 17-19,88.4,90,202.5,205.5,-217.5,,205.5,115,122.5,-127.5,,122.5,227.5,242.5,-262.5,,242.5,570.5,SBD
1,Matthew Rutledge,M,1986-03-26,35,USA,CO,Wraps,Open,73.75,75,197.5,207.5,212.5,,212.5,127.5,140,147.5,,147.5,217.5,230,-235,,230,590,SBD
2,Christopher Cameron,M,1994-06-09,27,USA,MA,Wraps,Open,70.95,75,205,-215,215,,215,125,130,-132.5,,130,210,225,232.5,,232.5,577.5,SBD
1,Brett Snow,M,1993-04-07,28,USA,MO,Wraps,Open,81.7,82.5,245,-257.5,257.5,,257.5,165,-180,180,,180,227.5,245,-262.5,,245,682.5,SBD
1,Mitch Bond,M,1987-11-12,34,USA,OR,Wraps,Open,87.7,90,207.5,222.5,230,,230,135,142.5,150,,150,230,242.5,257.5,,257.5,637.5,SBD
DQ,Mark Santandrea,M,1984-08-22,37,USA,NV,Unlimited,Open,87.85,90,-255,-275,-275,,,190,,,,190,,,,,,,SBD
DQ,Mark Santandrea,M,1984-08-22,37,USA,NV,Unlimited,Submasters 35-39,87.85,90,-255,-275,-275,,,190,,,,190,,,,,,,SBD
1,Hunter Hernandez #1,M,1992-05-16,29,USA,NV,Unlimited,Open,67.2,67.5,,,,,,215,235,-277.5,,235,,,,,,235,B
1,Mark Santandrea,M,1984-08-22,37,USA,NV,Unlimited,Open,87.85,90,,,,,,190,,,,190,,,,,,190,B
1,Mark Santandrea,M,1984-08-22,37,USA,NV,Unlimited,Submasters 35-39,87.85,90,,,,,,190,,,,190,,,,,,190,B
1,Cesar Escalante,M,1992-02-11,29,USA,OR,Raw,Open,80.5,82.5,200,215,-220,,215,155,165,172.5,,172.5,-215,227.5,235,242.5,235,622.5,SBD
1,Brian Browder,M,1990-10-20,31,USA,TX,Raw,Open,87.65,90,235,250,260,,260,155,170,180,,180,252.5,267.5,277.5,,277.5,717.5,SBD
2,Christian Aquino #1,M,1996-05-17,25,USA,NV,Raw,Open,89.3,90,212.5,222.5,-232.5,,222.5,142.5,150,155,,155,245,262.5,275,,275,652.5,SBD
3,Scott Sherman,M,1992-01-20,29,USA,WA,Raw,Open,84,90,170,180,187.5,,187.5,102.5,112.5,117.5,,117.5,190,202.5,-205,,202.5,507.5,SBD
4,Ritchy Martinez,M,1990-02-26,31,USA,CA,Raw,Open,88.85,90,142.5,152.5,160,,160,95,105,-110,,105,185,195,202.5,,202.5,467.5,SBD
1,Nicholas Shimko,M,1998-02-08,23,USA,MI,Raw,Juniors 20-23,98.5,100,,,,,,170,187.5,197.5,200,197.5,,,,,,197.5,B
1,Cesar Escalante,M,1992-02-11,29,USA,OR,Raw,Open,80.5,82.5,,,,,,155,165,172.5,,172.5,,,,,,172.5,B
1,Cesar Escalante,M,1992-02-11,29,USA,OR,Raw,Open,80.5,82.5,,,,,,,,,,,-215,227.5,235,,235,235,D
