Division,WeightClassKg,Place,Name,Team,BodyweightKg,Best3SquatKg,Best3BenchKg,Best3DeadliftKg,TotalKg,Equipment,Event,Sex
Boys,51.71,1,Austin Puetz,Paris,51.71,106.59,65.77,131.54,303.91,Single-ply,SBD,M
Boys,51.71,2,Jaime Flores,Mount Pleasant,49.9,106.59,79.38,115.67,301.64,Single-ply,SBD,M
Boys,51.71,3,Misael Guzman,Mount Vernon,51.71,92.99,56.7,108.86,258.55,Single-ply,SBD,M
Boys,51.71,4,Pablo Gutierrez #1,Mount Pleasant,46.27,83.91,52.16,106.59,242.67,Single-ply,SBD,M
Boys,51.71,5,Billy Dy,Ore City,49.44,74.84,43.09,102.06,219.99,Single-ply,SBD,M
Boys,51.71,6,Cody Brock,Detroit,48.99,68.04,40.82,88.45,197.31,Single-ply,SBD,M
Boys,51.71,7,Evan Beaty,Linden-Kildare,40.82,52.16,43.09,72.57,167.83,Single-ply,SBD,M
Boys,51.71,DQ,Hogan Goodson,Pattonville Prairiland,50.35,74.84,,,,Single-ply,SBD,M
Boys,55.79,1,Jesse Ortiz,Sulphur Springs,54.88,161.03,88.45,172.37,421.84,Single-ply,SBD,M
Boys,55.79,2,Naire Gaines,Paris,55.79,142.88,65.77,154.22,362.87,Single-ply,SBD,M
Boys,55.79,3,Dylan Izzi,Sulphur Springs,54.88,138.35,81.65,138.35,358.34,Single-ply,SBD,M
Boys,55.79,4,Dylan Simmons,Emory Rains,55.79,120.2,65.77,106.59,292.57,Single-ply,SBD,M
Boys,55.79,5,Josh Bolton,Paris North Lamar,54.43,113.4,52.16,102.06,267.62,Single-ply,SBD,M
Boys,55.79,6,James Kirkman,Mount Vernon,55.79,90.72,63.5,113.4,267.62,Single-ply,SBD,M
Boys,55.79,7,Brayden Lopez,Commerce,55.79,88.45,54.43,115.67,258.55,Single-ply,SBD,M
Boys,55.79,8,Wesley Culbertson,Paris North Lamar,52.62,83.91,52.16,90.72,226.8,Single-ply,SBD,M
Boys,55.79,DQ,Corbin Craver,Mount Vernon,52.62,129.27,,,,Single-ply,SBD,M
Boys,59.87,1,Ryder Brock,Detroit,57.61,151.95,65.77,165.56,383.29,Single-ply,SBD,M
Boys,67.13,2,Noah Craver,Mount Vernon,60.1,129.27,72.57,138.35,340.19,Single-ply,SBD,M
Boys,59.87,3,Cesar Colunga,Emory Rains,56.7,124.74,61.23,147.42,333.39,Single-ply,SBD,M
Boys,59.87,4,Josh Johnson,Paris North Lamar,59.42,113.4,65.77,136.08,315.25,Single-ply,SBD,M
Boys,74.84,1,Kenny Buffin,Longview Pine Tree,67.36,181.44,108.86,206.38,496.68,Single-ply,SBD,M
Boys,67.13,2,Jb Peltier,Commerce,67.13,183.7,111.13,181.44,476.27,Single-ply,SBD,M
Boys,67.13,3,Luis Gamez #1,Sulphur Springs,61.01,170.1,113.4,176.9,460.4,Single-ply,SBD,M
Boys,67.13,4,Jaykeb Ratcliff,Denison,63.96,158.76,92.99,179.17,430.91,Single-ply,SBD,M
Boys,67.13,5,Josuah Dennis,Commerce,63.96,161.03,90.72,176.9,428.64,Single-ply,SBD,M
Boys,67.13,6,Dylan Gibson,Maud,64.41,185.97,77.11,165.56,428.64,Single-ply,SBD,M
Boys,67.13,7,Brandon Gillen,Paris Chisum,66.68,151.95,92.99,181.44,426.38,Single-ply,SBD,M
Boys,67.13,8,Keitron Reed,Paris North Lamar,65.77,149.69,92.99,167.83,410.5,Single-ply,SBD,M
Boys,67.13,9,Reid Bynum,Linden-Kildare,63.96,145.15,86.18,174.63,405.97,Single-ply,SBD,M
Boys,67.13,10,Marcus Piroutek,Longview Pine Tree,63.5,154.22,102.06,140.61,396.89,Single-ply,SBD,M
Boys,67.13,11,Luis Colorado,Sulphur Springs,66.22,138.35,90.72,138.35,367.41,Single-ply,SBD,M
Boys,67.13,12,Jonathan Phillips,Pattonville Prairiland,63.05,129.27,70.31,165.56,365.14,Single-ply,SBD,M
Boys,67.13,13,Nick Westenhauer,Denison,62.14,124.74,92.99,145.15,362.87,Single-ply,SBD,M
Boys,67.13,14,Clayton Harris,Emory Rains,64.86,136.08,74.84,142.88,353.8,Single-ply,SBD,M
Boys,67.13,15,Luis Gonzales,Longview Pine Tree,64.41,124.74,86.18,140.61,351.53,Single-ply,SBD,M
Boys,67.13,16,Aaron Edwards,Paris North Lamar,63.05,117.93,90.72,140.61,349.27,Single-ply,SBD,M
Boys,67.13,17,Nicholas Noble,Paris North Lamar,64.86,136.08,72.57,140.61,349.27,Single-ply,SBD,M
Boys,67.13,18,Trenton Worley,Emory Rains,64.86,124.74,79.38,138.35,342.46,Single-ply,SBD,M
Boys,67.13,19,Amario Zamora,Sulphur Springs,62.6,124.74,65.77,140.61,331.12,Single-ply,SBD,M
Boys,67.13,20,Dakota Vanderburg,Paris Chisum,64.86,127.01,72.57,124.74,324.32,Single-ply,SBD,M
Boys,67.13,21,Naim Diego,Emory Rains,63.05,111.13,58.97,149.69,319.78,Single-ply,SBD,M
Boys,67.13,22,Mason Chrisman,Paris North Lamar,67.13,102.06,68.04,147.42,317.51,Single-ply,SBD,M
Boys,67.13,23,Mason Cleveland,Sulphur Springs,61.69,113.4,63.5,136.08,312.98,Single-ply,SBD,M
Boys,74.84,24,Cameron Greenbury,Mount Vernon,67.36,102.06,77.11,117.93,297.1,Single-ply,SBD,M
Boys,67.13,25,Bernard Robinson,Emory Rains,63.05,92.99,63.5,104.33,260.82,Single-ply,SBD,M
Boys,67.13,DQ,Zack Cariker,Ore City,67.13,,,,,Single-ply,SBD,M
Boys,67.13,DQ,Clay Hill,Paris Chisum,63.5,,,,,Single-ply,SBD,M
Boys,67.13,DQ,Hunter Weeks,Ore City,65.32,111.13,,,,Single-ply,SBD,M
Boys,67.13,DQ,Austin Mesick,Pattonville Prairiland,65.32,,,,,Single-ply,SBD,M
Boys,74.84,DQ,J'Kardi Witcher,Texarkana Texas,67.36,179.17,,,,Single-ply,SBD,M
Boys,74.84,1,Christian Darter,Emory Rains,74.84,206.38,136.08,204.12,546.58,Single-ply,SBD,M
Boys,74.84,2,Dyllan Retos,Paris Chisum,73.71,158.76,106.59,208.65,474,Single-ply,SBD,M
Boys,82.1,3,Larry Murphy,Texarkana Texas,75.07,170.1,113.4,181.44,464.93,Single-ply,SBD,M
Boys,74.84,4,Chase Perry,Paris North Lamar,74.84,172.37,104.33,170.1,446.79,Single-ply,SBD,M
Boys,74.84,5,Chris Miles,Sulphur Springs,74.39,165.56,97.52,172.37,435.45,Single-ply,SBD,M
Boys,74.84,6,Parker Termin,Paris Chisum,70.31,145.15,102.06,181.44,428.64,Single-ply,SBD,M
Boys,74.84,7,Dale Williamson,Texarkana Texas,73.03,158.76,97.52,163.29,419.57,Single-ply,SBD,M
Boys,74.84,8,Uriel De La Riva,Mount Pleasant,73.03,170.1,88.45,158.76,417.3,Single-ply,SBD,M
Boys,74.84,9,Tydarius Brannon,Daingerfield,69.17,145.15,77.11,165.56,387.82,Single-ply,SBD,M
Boys,74.84,10,Dan Paclucci,Texarkana Texas,71.21,142.88,90.72,142.88,376.48,Single-ply,SBD,M
Boys,74.84,11,Justin Ferrell,Denison,70.31,131.54,83.91,156.49,371.95,Single-ply,SBD,M
Boys,74.84,12,Chris Goforth,Emory Rains,74.84,145.15,81.65,145.15,371.95,Single-ply,SBD,M
Boys,74.84,13,Dustin Coleman,Ore City,70.31,136.08,72.57,133.81,342.46,Single-ply,SBD,M
Boys,74.84,14,Taylor Farris,Emory Rains,74.84,127.01,68.04,133.81,328.85,Single-ply,SBD,M
Boys,74.84,15,Dakota Patterson,Maud,73.48,102.06,61.23,136.08,299.37,Single-ply,SBD,M
Boys,74.84,DQ,Brad Walker,Denison,69.17,129.27,,,,Single-ply,SBD,M
Boys,82.1,1,Dedric Smith,Sulphur Springs,78.47,199.58,120.2,217.72,537.51,Single-ply,SBD,M
Boys,82.1,2,Ethan Jordan,Ore City,78.02,208.65,117.93,188.24,514.83,Single-ply,SBD,M
Boys,82.1,3,Zach Spigner,Sulphur Springs,80.29,176.9,117.93,210.92,505.76,Single-ply,SBD,M
Boys,82.1,4,Taylor Young #4,Ore City,76.66,195.04,108.86,190.51,494.42,Single-ply,SBD,M
Boys,82.1,5,Justin Blagburn,Emory Rains,78.93,181.44,108.86,188.24,478.54,Single-ply,SBD,M
Boys,82.1,6,Antonio Ramirez,Commerce,82.1,183.7,102.06,190.51,476.27,Single-ply,SBD,M
Boys,82.1,7,Tyler Rosamond,Sulphur Springs,80.74,167.83,106.59,172.37,446.79,Single-ply,SBD,M
Boys,82.1,8,Kamron Younger,Daingerfield,80.97,158.76,106.59,181.44,446.79,Single-ply,SBD,M
Boys,82.1,9,Dominique Allen,Daingerfield,80.74,158.76,102.06,181.44,442.25,Single-ply,SBD,M
Boys,82.1,10,Cruz Renteria,Longview Pine Tree,78.02,174.63,92.99,172.37,439.98,Single-ply,SBD,M
Boys,82.1,11,Patrick Hoffman,Mount Vernon,76.66,147.42,111.13,167.83,426.38,Single-ply,SBD,M
Boys,82.1,12,Caleb Collins,Maud,82.1,163.29,90.72,163.29,417.3,Single-ply,SBD,M
Boys,82.1,13,Robert Pyle,Emory Rains,76.66,158.76,90.72,165.56,415.04,Single-ply,SBD,M
Boys,82.1,14,Allen Dudley,Pattonville Prairiland,79.83,138.35,92.99,174.63,405.97,Single-ply,SBD,M
Boys,82.1,15,Nicky Goens,Ore City,76.88,140.61,95.25,163.29,399.16,Single-ply,SBD,M
Boys,82.1,16,Trevor McCoin,Detroit,79.83,140.61,81.65,172.37,394.63,Single-ply,SBD,M
Boys,82.1,17,Julio Cruz,Longview Pine Tree,81.65,142.88,106.59,145.15,394.63,Single-ply,SBD,M
Boys,82.1,18,Casey Harper,Paris North Lamar,82.1,136.08,104.33,149.69,390.09,Single-ply,SBD,M
Boys,82.1,19,Dakota Hemgree,Paris North Lamar,75.3,149.69,68.04,154.22,371.95,Single-ply,SBD,M
Boys,82.1,20,Zach Avringer,Mount Vernon,75.75,142.88,74.84,151.95,369.68,Single-ply,SBD,M
Boys,82.1,21,Grayson Burns,Emory Rains,77.11,129.27,74.84,142.88,347,Single-ply,SBD,M
Boys,82.1,22,Logan Wright,Ore City,75.3,124.74,68.04,115.67,308.44,Single-ply,SBD,M
Boys,82.1,23,Tucker Bass,Daingerfield,79.38,120.2,65.77,115.67,301.64,Single-ply,SBD,M
Boys,82.1,24,Wyatt Collins,Daingerfield,75.75,95.25,68.04,97.52,260.82,Single-ply,SBD,M
Boys,82.1,25,Mitchell Baker,Emory Rains,79.38,92.99,45.36,117.93,256.28,Single-ply,SBD,M
Boys,89.81,1,Gannon Brown,Emory Rains,86.18,229.06,151.95,249.48,630.49,Single-ply,SBD,M
Boys,89.81,2,Bowen Kirkbride,Denison,87.77,235.87,140.61,210.92,587.4,Single-ply,SBD,M
Boys,89.81,3,Grant Russell,Emory Rains,84.82,181.44,129.27,260.82,571.53,Single-ply,SBD,M
Boys,89.81,4,Cody Brantley,Mount Pleasant,87.54,204.12,147.42,185.97,537.51,Single-ply,SBD,M
Boys,89.81,5,Quay Ward,Longview Pine Tree,84.37,179.17,124.74,190.51,494.42,Single-ply,SBD,M
Boys,89.81,6,Alex Gamez,Sulphur Springs,86.18,195.04,97.52,188.24,480.81,Single-ply,SBD,M
Boys,89.81,7,Justin Taylor,Daingerfield,85.28,197.31,90.72,172.37,460.4,Single-ply,SBD,M
Boys,89.81,8,Mark Nusbaum,Longview Pine Tree,89.13,172.37,95.25,190.51,458.13,Single-ply,SBD,M
Boys,89.81,9,Jacob Akard,Paris North Lamar,86.64,158.76,113.4,183.7,455.86,Single-ply,SBD,M
Boys,89.81,10,Jordan Sanders,Paris,85.28,161.03,99.79,190.51,451.32,Single-ply,SBD,M
Boys,89.81,11,Isaiah Currie,Linden-Kildare,87.09,190.51,97.52,163.29,451.32,Single-ply,SBD,M
Boys,89.81,12,Braylyn Adams,Sulphur Springs,83.01,185.97,81.65,161.03,428.64,Single-ply,SBD,M
Boys,89.81,13,Aundrey Heath,Commerce,83.46,156.49,104.33,149.69,410.5,Single-ply,SBD,M
Boys,89.81,14,Kj Reid,Texarkana Texas,85.73,158.76,90.72,142.88,392.36,Single-ply,SBD,M
Boys,89.81,15,Dj Samuels,Paris,85.73,136.08,88.45,145.15,369.68,Single-ply,SBD,M
Boys,89.81,16,Noah Smith,Longview Pine Tree,83.91,142.88,83.91,138.35,365.14,Single-ply,SBD,M
Boys,99.79,17,Chris Davis,Maud,90.04,142.88,81.65,136.08,360.61,Single-ply,SBD,M
Boys,89.81,DQ,Recus Hayes,Daingerfield,88.45,142.88,,,,Single-ply,SBD,M
Boys,89.81,DQ,Decorian Kendricks,Texarkana Texas,85.28,167.83,,,,Single-ply,SBD,M
Boys,89.81,DQ,James Nelson,Texarkana Texas,84.37,158.76,,,,Single-ply,SBD,M
Boys,89.81,DQ,Bryton Wood,Sulphur Springs,82.55,,,,,Single-ply,SBD,M
Boys,99.79,1,Isaiah Martinez,Commerce,93.89,285.76,172.37,247.21,705.34,Single-ply,SBD,M
Boys,99.79,2,Chris Ferguson,Longview Pine Tree,94.35,231.33,140.61,219.99,591.94,Single-ply,SBD,M
Boys,99.79,3,Jamie Wood #2,Denison,97.52,215.46,147.42,210.92,573.79,Single-ply,SBD,M
Boys,99.79,4,Zack McGuire,Ore City,93.44,215.46,136.08,215.46,566.99,Single-ply,SBD,M
Boys,99.79,5,Geoffrey Smith,Paris,99.79,195.04,120.2,226.8,542.04,Single-ply,SBD,M
Boys,99.79,6,Tariq Hill,Texarkana Texas,92.08,204.12,124.74,197.31,526.17,Single-ply,SBD,M
Boys,99.79,7,Tyron Wilson,Commerce,93.44,197.31,124.74,204.12,526.17,Single-ply,SBD,M
Boys,99.79,8,Tim Carr,Maud,97.07,204.12,102.06,208.65,514.83,Single-ply,SBD,M
Boys,99.79,9,Tyler Hutsell,Linden-Kildare,98.43,204.12,108.86,197.31,510.29,Single-ply,SBD,M
Boys,99.79,10,Jake Smith #7,Longview Pine Tree,96.16,183.7,99.79,213.19,496.68,Single-ply,SBD,M
Boys,99.79,11,David Mauldin,Commerce,94.35,158.76,120.2,204.12,483.08,Single-ply,SBD,M
Boys,99.79,12,Jokorey Sherow,Longview Pine Tree,97.75,185.97,106.59,185.97,478.54,Single-ply,SBD,M
Boys,99.79,13,Will Anderson,Mount Pleasant,98.43,170.1,113.4,188.24,471.74,Single-ply,SBD,M
Boys,99.79,14,Ethan England,Paris,97.98,176.9,104.33,181.44,462.66,Single-ply,SBD,M
Boys,99.79,15,Tristan McClure,Paris,92.99,192.78,88.45,172.37,453.59,Single-ply,SBD,M
Boys,99.79,16,Brandon Halliday,Paris North Lamar,98.88,170.1,102.06,165.56,437.72,Single-ply,SBD,M
Boys,99.79,17,Brandon Truemner,Longview Pine Tree,93.89,163.29,83.91,172.37,419.57,Single-ply,SBD,M
Boys,99.79,18,Jawun Sims,Paris,96.16,124.74,104.33,142.88,371.95,Single-ply,SBD,M
Boys,99.79,19,Mitchell Parra,Mount Pleasant,98.88,154.22,79.38,136.08,369.68,Single-ply,SBD,M
Boys,99.79,20,Ryder Bryant,Paris North Lamar,95.71,136.08,70.31,147.42,353.8,Single-ply,SBD,M
Boys,99.79,21,Doran Hutchison,Paris North Lamar,97.07,122.47,74.84,120.2,317.51,Single-ply,SBD,M
Boys,99.79,22,Shay Cregg,Paris Chisum,93.44,117.93,63.5,131.54,312.98,Single-ply,SBD,M
Boys,109.77,1,Sergio Orona,Denison,105.23,240.4,149.69,240.4,630.49,Single-ply,SBD,M
Boys,109.77,2,Gary Alexander,Maud,109.54,249.48,111.13,249.48,610.08,Single-ply,SBD,M
Boys,109.77,3,Tyler Carter,Paris North Lamar,105.69,199.58,145.15,204.12,548.85,Single-ply,SBD,M
Boys,109.77,4,Lane Burleson,Linden-Kildare,109.77,206.38,97.52,192.78,496.68,Single-ply,SBD,M
Boys,109.77,5,Tyler Collier,Pattonville Prairiland,102.97,188.24,106.59,199.58,494.42,Single-ply,SBD,M
Boys,109.77,6,Austin Morgan,Commerce,107.95,185.97,129.27,176.9,492.15,Single-ply,SBD,M
Boys,109.77,7,Bailey Reid,Denison,106.14,181.44,117.93,170.1,469.47,Single-ply,SBD,M
Boys,109.77,8,James Murphy,Texarkana Texas,109.77,183.7,120.2,165.56,469.47,Single-ply,SBD,M
Boys,109.77,9,Trey Payne,Longview Pine Tree,107.73,174.63,113.4,154.22,442.25,Single-ply,SBD,M
Boys,109.77,10,David Tapia,Emory Rains,106.14,172.37,86.18,158.76,417.3,Single-ply,SBD,M
Boys,109.77,11,Devin Andrews,Mount Vernon,105.69,138.35,68.04,161.03,367.41,Single-ply,SBD,M
Boys,109.77,DQ,Dakota Helm,Paris,107.95,142.88,,,,Single-ply,SBD,M
Boys,124.74,1,Justin Bigelow,Denison,121.56,328.85,215.46,283.5,827.81,Single-ply,SBD,M
Boys,124.74,2,William Mitchell,Longview Pine Tree,113.4,244.94,140.61,208.65,594.21,Single-ply,SBD,M
Boys,124.74,3,James Hanson,Mount Pleasant,119.75,181.44,108.86,226.8,517.1,Single-ply,SBD,M
Boys,124.74,4,Aaron Burris,Pattonville Prairiland,119.75,215.46,104.33,183.7,503.49,Single-ply,SBD,M
Boys,124.74,5,Trey Potter,Ore City,113.4,181.44,117.93,158.76,458.13,Single-ply,SBD,M
Boys,124.74,6,Stetson Henderson,Paris North Lamar,116.57,172.37,111.13,170.1,453.59,Single-ply,SBD,M
Boys,124.74,7,Nick Albert,Longview Pine Tree,112.94,113.4,83.91,124.74,322.05,Single-ply,SBD,M
Boys,124.74,8,Ben Grissom,Mount Pleasant,117.48,136.08,74.84,102.06,312.98,Single-ply,SBD,M
Boys,124.74,DQ,Terrance Linwood,Daingerfield,120.66,,,,,Single-ply,SBD,M
Boys,124.74,DQ,Nick Runnels,Texarkana Texas,122.02,174.63,,,,Single-ply,SBD,M
Boys,124.74+,1,Justin Lewis,Texarkana Texas,129.27,317.51,165.56,254.01,737.09,Single-ply,SBD,M
Boys,124.74+,2,William Wright #2,Mount Pleasant,168.28,260.82,142.88,195.04,598.74,Single-ply,SBD,M
Boys,124.74+,3,Lane Allen,Detroit,136.08,242.67,129.27,208.65,580.6,Single-ply,SBD,M
Boys,124.74+,4,Will Brown,Texarkana Texas,125.65,226.8,124.74,226.8,578.33,Single-ply,SBD,M
Boys,124.74+,5,Jess Jenkins,Sulphur Springs,129.73,201.85,138.35,233.6,573.79,Single-ply,SBD,M
Boys,124.74+,6,Keithon Walker,Daingerfield,131.54,249.48,120.2,197.31,566.99,Single-ply,SBD,M
Boys,124.74+,7,Matt Brown #8,Maud,150.14,226.8,136.08,204.12,566.99,Single-ply,SBD,M
Boys,124.74+,8,Francisco Morales,Mount Pleasant,131.54,217.72,106.59,217.72,542.04,Single-ply,SBD,M
Boys,124.74+,9,Qurdale Huff,Paris,158.76,188.24,117.93,197.31,503.49,Single-ply,SBD,M
Boys,124.74+,10,Jalen Brown #1,Mount Pleasant,137.44,165.56,131.54,185.97,483.08,Single-ply,SBD,M
Boys,124.74+,11,Zack Watson,Ore City,136.08,181.44,108.86,176.9,467.2,Single-ply,SBD,M
Boys,124.74+,12,Riley Coker,Paris,127.46,181.44,99.79,174.63,455.86,Single-ply,SBD,M
Boys,124.74+,13,Caleb Johnson,Mount Pleasant,126.1,174.63,79.38,154.22,408.23,Single-ply,SBD,M
Boys,124.74+,14,D'Undre Williams,Linden-Kildare,145.15,147.42,99.79,147.42,394.63,Single-ply,SBD,M
Boys,124.74+,15,Marquies Evans,Mount Vernon,132.45,113.4,61.23,122.47,297.1,Single-ply,SBD,M
Boys,124.74+,DQ,Willie Evans,Daingerfield,183.7,242.67,,,,Single-ply,SBD,M
